%YAML 1.1
%TAG !u! tag:unity3d.com,2011:
--- !u!74 &7400000
AnimationClip:
  m_ObjectHideFlags: 0
  m_CorrespondingSourceObject: {fileID: 0}
  m_PrefabInstance: {fileID: 0}
  m_PrefabAsset: {fileID: 0}
  m_Name: MovementTest
  serializedVersion: 6
  m_Legacy: 0
  m_Compressed: 0
  m_UseHighQualityCurve: 1
  m_RotationCurves: []
  m_CompressedRotationCurves: []
  m_EulerCurves: []
  m_PositionCurves:
  - curve:
      serializedVersion: 2
      m_Curve:
      - serializedVersion: 3
        time: 0
        value: {x: 0, y: 0, z: 0}
        inSlope: {x: 0, y: 0, z: 0}
        outSlope: {x: 0, y: 0, z: 0}
        tangentMode: 0
        weightedMode: 0
        inWeight: {x: 0.33333334, y: 0.33333334, z: 0.33333334}
        outWeight: {x: 0.33333334, y: 0.33333334, z: 0.33333334}
      - serializedVersion: 3
        time: 0.15
        value: {x: 0, y: 0, z: 0}
        inSlope: {x: 0, y: 0, z: 0}
        outSlope: {x: 0, y: 0.81240237, z: 0}
        tangentMode: 0
        weightedMode: 0
        inWeight: {x: 0.33333334, y: 0.33333334, z: 0.33333334}
        outWeight: {x: 0.33333334, y: 0.18280947, z: 0.33333334}
      - serializedVersion: 3
        time: 0.25
        value: {x: 0, y: 0.12889297, z: 0}
        inSlope: {x: 0, y: 0, z: 0}
        outSlope: {x: 0, y: 0, z: 0}
        tangentMode: 0
        weightedMode: 0
        inWeight: {x: 0.33333334, y: 0.33333334, z: 0.33333334}
        outWeight: {x: 0.33333334, y: 0.33333334, z: 0.33333334}
      - serializedVersion: 3
        time: 0.4
        value: {x: 0, y: 0.2, z: 0}
        inSlope: {x: 0, y: 0, z: 0}
        outSlope: {x: 0, y: 0, z: 0}
        tangentMode: 0
        weightedMode: 0
        inWeight: {x: 0.33333334, y: 0.33333334, z: 0.33333334}
        outWeight: {x: 0.33333334, y: 0.33333334, z: 0.33333334}
      - serializedVersion: 3
        time: 0.5
        value: {x: 0, y: 0.295028, z: 0}
        inSlope: {x: 0, y: 0, z: 0}
        outSlope: {x: 0, y: 0, z: 0}
        tangentMode: 0
        weightedMode: 0
        inWeight: {x: 0.33333334, y: 0.33333334, z: 0.33333334}
        outWeight: {x: 0.33333334, y: 0.33333334, z: 0.33333334}
      - serializedVersion: 3
        time: 0.65
        value: {x: 0, y: 0, z: 0}
        inSlope: {x: 0, y: -0.7464169, z: 0}
        outSlope: {x: 0, y: 0.73295444, z: 0}
        tangentMode: 0
        weightedMode: 0
        inWeight: {x: 0.33333334, y: 0.18570568, z: 0.33333334}
        outWeight: {x: 0.33333334, y: 0.13339476, z: 0.33333334}
      - serializedVersion: 3
        time: 0.8
        value: {x: 0, y: 0.15744685, z: 0}
        inSlope: {x: 0, y: 0, z: 0}
        outSlope: {x: 0, y: 0, z: 0}
        tangentMode: 0
        weightedMode: 0
        inWeight: {x: 0.33333334, y: 0.33333334, z: 0.33333334}
        outWeight: {x: 0.33333334, y: 0.33333334, z: 0.33333334}
      - serializedVersion: 3
        time: 0.95
        value: {x: 0, y: 0.2049504, z: 0}
        inSlope: {x: 0, y: 0, z: 0}
        outSlope: {x: 0, y: 0, z: 0}
        tangentMode: 0
        weightedMode: 0
        inWeight: {x: 0.33333334, y: 0.33333334, z: 0.33333334}
        outWeight: {x: 0.33333334, y: 0.33333334, z: 0.33333334}
      - serializedVersion: 3
        time: 1.05
        value: {x: 0, y: 0.3315888, z: 0}
        inSlope: {x: 0, y: -0.52208006, z: 0}
        outSlope: {x: 0, y: -0.52208006, z: 0}
        tangentMode: 0
        weightedMode: 0
        inWeight: {x: 0.33333334, y: 0.33333334, z: 0.33333334}
        outWeight: {x: 0.33333334, y: 0.33333334, z: 0.33333334}
      - serializedVersion: 3
        time: 1.2
        value: {x: 0, y: 0.1292172, z: 0}
        inSlope: {x: 0, y: -1.6579436, z: 0}
        outSlope: {x: 0, y: -1.6579436, z: 0}
        tangentMode: 0
        weightedMode: 0
        inWeight: {x: 0.33333334, y: 0.33333334, z: 0.33333334}
        outWeight: {x: 0.33333334, y: 0.33333334, z: 0.33333334}
      - serializedVersion: 3
        time: 1.25
        value: {x: 0, y: 0, z: 0}
        inSlope: {x: 0, y: -0.6290654, z: 0}
        outSlope: {x: 0, y: 0, z: 0}
        tangentMode: 0
        weightedMode: 0
        inWeight: {x: 0.33333334, y: 0.14689922, z: 0.33333334}
        outWeight: {x: 0.33333334, y: 0.33333334, z: 0.33333334}
      m_PreInfinity: 2
      m_PostInfinity: 2
      m_RotationOrder: 4
    path: 
  m_ScaleCurves: []
  m_FloatCurves: []
  m_PPtrCurves:
  - curve:
    - time: 0
      value: {fileID: 21300000, guid: b6294de13e7631c4da3c84268f58197e, type: 3}
    - time: 0.05
      value: {fileID: 21300000, guid: 920e11ee6d17bff479c2376402427b8e, type: 3}
    - time: 0.1
      value: {fileID: 21300000, guid: a584b5c3c78ee0f4dad4736bc837de71, type: 3}
    - time: 0.15
      value: {fileID: 21300000, guid: 4985f5832f7bb5f44ae1b057908cf63b, type: 3}
    - time: 0.2
      value: {fileID: 21300000, guid: 237a2d32ad2b43c448d346cff67c64cf, type: 3}
    - time: 0.25
      value: {fileID: 21300000, guid: 86344946fd388f64cb31c94ba5b9a451, type: 3}
    - time: 0.3
      value: {fileID: 21300000, guid: ac1f5afb88ab12e4ea9d68d60b7fe620, type: 3}
    - time: 0.35
      value: {fileID: 21300000, guid: b6294de13e7631c4da3c84268f58197e, type: 3}
    - time: 0.4
      value: {fileID: 21300000, guid: 9bea119dd493acf4381f3e4099f01074, type: 3}
    - time: 0.45
      value: {fileID: 21300000, guid: ccb803075081c7340bddea1c9f0500cd, type: 3}
    - time: 0.5
      value: {fileID: 21300000, guid: 587ad8ae88ec5a041865c2ca87176498, type: 3}
    - time: 0.55
      value: {fileID: 21300000, guid: 89c4f01e1a48d434fa4a2261b594be94, type: 3}
    - time: 0.6
      value: {fileID: 21300000, guid: a8f5af883ddbb49458d12c7738458b78, type: 3}
    - time: 0.65
      value: {fileID: 21300000, guid: 41bf881414b21a24ba9f6323f749dde1, type: 3}
    - time: 0.7
      value: {fileID: 21300000, guid: 21d7e56a62a0e554697910a959a17e25, type: 3}
    - time: 0.75
      value: {fileID: 21300000, guid: 69845cef4ef02af47a9d0f39ce609634, type: 3}
    - time: 0.8
      value: {fileID: 21300000, guid: c7666d46cbfe79049a15e80a50293a12, type: 3}
    - time: 0.85
      value: {fileID: 21300000, guid: 2cac67e0745d8d04c868beb3390094cf, type: 3}
    - time: 0.9
      value: {fileID: 21300000, guid: 31a76b0fa22bdb542b4eccdf939010aa, type: 3}
    - time: 0.95
      value: {fileID: 21300000, guid: cb4be9afcd2a9ec449e656853b3525f1, type: 3}
    - time: 1
      value: {fileID: 21300000, guid: c793cb21a19669147b3b75aed959ec5e, type: 3}
    - time: 1.05
      value: {fileID: 21300000, guid: 95f446470ad126a4180d3aa2fe078e5c, type: 3}
    - time: 1.1
      value: {fileID: 21300000, guid: 7b9e3aa0f46b2c440bfb91bbf92ae66b, type: 3}
    - time: 1.15
      value: {fileID: 21300000, guid: 73c0ceb792ce25d45906fc5239615ce1, type: 3}
    - time: 1.2
      value: {fileID: 21300000, guid: 0652f83b591f62341b347896a26fbd67, type: 3}
    - time: 1.25
      value: {fileID: 21300000, guid: 2b5d86ad926758d478dd08e3e4aed618, type: 3}
    - time: 1.3
      value: {fileID: 21300000, guid: 88384693d0d125c4999e6eb50871c788, type: 3}
    attribute: m_Sprite
    path: 
    classID: 212
    script: {fileID: 0}
  m_SampleRate: 60
  m_WrapMode: 0
  m_Bounds:
    m_Center: {x: 0, y: 0, z: 0}
    m_Extent: {x: 0, y: 0, z: 0}
  m_ClipBindingConstant:
    genericBindings:
    - serializedVersion: 2
      path: 0
      attribute: 1
      script: {fileID: 0}
      typeID: 4
      customType: 0
      isPPtrCurve: 0
    - serializedVersion: 2
      path: 0
      attribute: 0
      script: {fileID: 0}
      typeID: 212
      customType: 23
      isPPtrCurve: 1
    pptrCurveMapping:
    - {fileID: 21300000, guid: b6294de13e7631c4da3c84268f58197e, type: 3}
    - {fileID: 21300000, guid: 920e11ee6d17bff479c2376402427b8e, type: 3}
    - {fileID: 21300000, guid: a584b5c3c78ee0f4dad4736bc837de71, type: 3}
    - {fileID: 21300000, guid: 4985f5832f7bb5f44ae1b057908cf63b, type: 3}
    - {fileID: 21300000, guid: 237a2d32ad2b43c448d346cff67c64cf, type: 3}
    - {fileID: 21300000, guid: 86344946fd388f64cb31c94ba5b9a451, type: 3}
    - {fileID: 21300000, guid: ac1f5afb88ab12e4ea9d68d60b7fe620, type: 3}
    - {fileID: 21300000, guid: b6294de13e7631c4da3c84268f58197e, type: 3}
    - {fileID: 21300000, guid: 9bea119dd493acf4381f3e4099f01074, type: 3}
    - {fileID: 21300000, guid: ccb803075081c7340bddea1c9f0500cd, type: 3}
    - {fileID: 21300000, guid: 587ad8ae88ec5a041865c2ca87176498, type: 3}
    - {fileID: 21300000, guid: 89c4f01e1a48d434fa4a2261b594be94, type: 3}
    - {fileID: 21300000, guid: a8f5af883ddbb49458d12c7738458b78, type: 3}
    - {fileID: 21300000, guid: 41bf881414b21a24ba9f6323f749dde1, type: 3}
    - {fileID: 21300000, guid: 21d7e56a62a0e554697910a959a17e25, type: 3}
    - {fileID: 21300000, guid: 69845cef4ef02af47a9d0f39ce609634, type: 3}
    - {fileID: 21300000, guid: c7666d46cbfe79049a15e80a50293a12, type: 3}
    - {fileID: 21300000, guid: 2cac67e0745d8d04c868beb3390094cf, type: 3}
    - {fileID: 21300000, guid: 31a76b0fa22bdb542b4eccdf939010aa, type: 3}
    - {fileID: 21300000, guid: cb4be9afcd2a9ec449e656853b3525f1, type: 3}
    - {fileID: 21300000, guid: c793cb21a19669147b3b75aed959ec5e, type: 3}
    - {fileID: 21300000, guid: 95f446470ad126a4180d3aa2fe078e5c, type: 3}
    - {fileID: 21300000, guid: 7b9e3aa0f46b2c440bfb91bbf92ae66b, type: 3}
    - {fileID: 21300000, guid: 73c0ceb792ce25d45906fc5239615ce1, type: 3}
    - {fileID: 21300000, guid: 0652f83b591f62341b347896a26fbd67, type: 3}
    - {fileID: 21300000, guid: 2b5d86ad926758d478dd08e3e4aed618, type: 3}
    - {fileID: 21300000, guid: 88384693d0d125c4999e6eb50871c788, type: 3}
  m_AnimationClipSettings:
    serializedVersion: 2
    m_AdditiveReferencePoseClip: {fileID: 0}
    m_AdditiveReferencePoseTime: 0
    m_StartTime: 0
    m_StopTime: 1.3166666
    m_OrientationOffsetY: 0
    m_Level: 0
    m_CycleOffset: 0
    m_HasAdditiveReferencePose: 0
    m_LoopTime: 1
    m_LoopBlend: 0
    m_LoopBlendOrientation: 0
    m_LoopBlendPositionY: 0
    m_LoopBlendPositionXZ: 0
    m_KeepOriginalOrientation: 0
    m_KeepOriginalPositionY: 1
    m_KeepOriginalPositionXZ: 0
    m_HeightFromFeet: 0
    m_Mirror: 0
  m_EditorCurves:
  - curve:
      serializedVersion: 2
      m_Curve:
      - serializedVersion: 3
        time: 0
        value: 0
        inSlope: 0
        outSlope: 0
        tangentMode: 136
        weightedMode: 0
        inWeight: 0.33333334
        outWeight: 0.33333334
      - serializedVersion: 3
        time: 0.25
        value: 0
        inSlope: 0
        outSlope: 0
        tangentMode: 136
        weightedMode: 0
        inWeight: 0.33333334
        outWeight: 0.33333334
      - serializedVersion: 3
        time: 0.4
        value: 0
        inSlope: 0
        outSlope: 0
        tangentMode: 136
        weightedMode: 0
        inWeight: 0.33333334
        outWeight: 0.33333334
      - serializedVersion: 3
        time: 0.5
        value: 0
        inSlope: 0
        outSlope: 0
        tangentMode: 136
        weightedMode: 0
        inWeight: 0.33333334
        outWeight: 0.33333334
      - serializedVersion: 3
        time: 0.65
        value: 0
        inSlope: 0
        outSlope: 0
        tangentMode: 136
        weightedMode: 0
        inWeight: 0.33333334
        outWeight: 0.33333334
      - serializedVersion: 3
        time: 0.8
        value: 0
        inSlope: 0
        outSlope: 0
        tangentMode: 136
        weightedMode: 0
        inWeight: 0.33333334
        outWeight: 0.33333334
      - serializedVersion: 3
        time: 0.95
        value: 0
        inSlope: 0
        outSlope: 0
        tangentMode: 136
        weightedMode: 0
        inWeight: 0.33333334
        outWeight: 0.33333334
      - serializedVersion: 3
        time: 1.05
        value: 0
        inSlope: 0
        outSlope: 0
        tangentMode: 136
        weightedMode: 0
        inWeight: 0.33333334
        outWeight: 0.33333334
      - serializedVersion: 3
        time: 1.2
        value: 0
        inSlope: 0
        outSlope: 0
        tangentMode: 136
        weightedMode: 0
        inWeight: 0.33333334
        outWeight: 0.33333334
      m_PreInfinity: 2
      m_PostInfinity: 2
      m_RotationOrder: 4
    attribute: m_LocalPosition.x
    path: 
    classID: 4
    script: {fileID: 0}
  - curve:
      serializedVersion: 2
      m_Curve:
      - serializedVersion: 3
        time: 0
        value: 0
        inSlope: 0
        outSlope: 0
        tangentMode: 1
        weightedMode: 0
        inWeight: 0.33333334
        outWeight: 0.33333334
      - serializedVersion: 3
        time: 0.15
        value: 0
        inSlope: 0
        outSlope: 0.81240237
        tangentMode: 1
        weightedMode: 0
        inWeight: 0.33333334
        outWeight: 0.18280947
      - serializedVersion: 3
        time: 0.25
        value: 0.12889297
        inSlope: 0
        outSlope: 0
        tangentMode: 1
        weightedMode: 0
        inWeight: 0.33333334
        outWeight: 0.33333334
      - serializedVersion: 3
        time: 0.4
        value: 0.2
        inSlope: 0
        outSlope: 0
        tangentMode: 1
        weightedMode: 0
        inWeight: 0.33333334
        outWeight: 0.33333334
      - serializedVersion: 3
        time: 0.5
        value: 0.295028
        inSlope: 0
        outSlope: 0
        tangentMode: 1
        weightedMode: 0
        inWeight: 0.33333334
        outWeight: 0.33333334
      - serializedVersion: 3
        time: 0.65
        value: 0
        inSlope: -0.7464169
        outSlope: 0.73295444
        tangentMode: 1
        weightedMode: 0
        inWeight: 0.18570568
        outWeight: 0.13339476
      - serializedVersion: 3
        time: 0.8
        value: 0.15744685
        inSlope: 0
        outSlope: 0
        tangentMode: 1
        weightedMode: 0
        inWeight: 0.33333334
        outWeight: 0.33333334
      - serializedVersion: 3
        time: 0.95
        value: 0.2049504
        inSlope: 0
        outSlope: 0
        tangentMode: 1
        weightedMode: 0
        inWeight: 0.33333334
        outWeight: 0.33333334
      - serializedVersion: 3
        time: 1.05
        value: 0.3315888
        inSlope: -0.52208006
        outSlope: -0.52208006
        tangentMode: 1
        weightedMode: 0
        inWeight: 0.33333334
        outWeight: 0.33333334
      - serializedVersion: 3
        time: 1.2
        value: 0.1292172
        inSlope: -1.6579436
        outSlope: -1.6579436
        tangentMode: 1
        weightedMode: 0
        inWeight: 0.33333334
        outWeight: 0.33333334
      - serializedVersion: 3
        time: 1.25
        value: 0
        inSlope: -0.6290654
        outSlope: 0
        tangentMode: 1
        weightedMode: 0
        inWeight: 0.14689922
        outWeight: 0.33333334
      m_PreInfinity: 2
      m_PostInfinity: 2
      m_RotationOrder: 4
    attribute: m_LocalPosition.y
    path: 
    classID: 4
    script: {fileID: 0}
  - curve:
      serializedVersion: 2
      m_Curve:
      - serializedVersion: 3
        time: 0
        value: 0
        inSlope: 0
        outSlope: 0
        tangentMode: 136
        weightedMode: 0
        inWeight: 0.33333334
        outWeight: 0.33333334
      - serializedVersion: 3
        time: 0.25
        value: 0
        inSlope: 0
        outSlope: 0
        tangentMode: 136
        weightedMode: 0
        inWeight: 0.33333334
        outWeight: 0.33333334
      - serializedVersion: 3
        time: 0.4
        value: 0
        inSlope: 0
        outSlope: 0
        tangentMode: 136
        weightedMode: 0
        inWeight: 0.33333334
        outWeight: 0.33333334
      - serializedVersion: 3
        time: 0.5
        value: 0
        inSlope: 0
        outSlope: 0
        tangentMode: 136
        weightedMode: 0
        inWeight: 0.33333334
        outWeight: 0.33333334
      - serializedVersion: 3
        time: 0.65
        value: 0
        inSlope: 0
        outSlope: 0
        tangentMode: 136
        weightedMode: 0
        inWeight: 0.33333334
        outWeight: 0.33333334
      - serializedVersion: 3
        time: 0.8
        value: 0
        inSlope: 0
        outSlope: 0
        tangentMode: 136
        weightedMode: 0
        inWeight: 0.33333334
        outWeight: 0.33333334
      - serializedVersion: 3
        time: 0.95
        value: 0
        inSlope: 0
        outSlope: 0
        tangentMode: 136
        weightedMode: 0
        inWeight: 0.33333334
        outWeight: 0.33333334
      - serializedVersion: 3
        time: 1.05
        value: 0
        inSlope: 0
        outSlope: 0
        tangentMode: 136
        weightedMode: 0
        inWeight: 0.33333334
        outWeight: 0.33333334
      - serializedVersion: 3
        time: 1.2
        value: 0
        inSlope: 0
        outSlope: 0
        tangentMode: 136
        weightedMode: 0
        inWeight: 0.33333334
        outWeight: 0.33333334
      m_PreInfinity: 2
      m_PostInfinity: 2
      m_RotationOrder: 4
    attribute: m_LocalPosition.z
    path: 
    classID: 4
    script: {fileID: 0}
  m_EulerEditorCurves: []
  m_HasGenericRootTransform: 1
  m_HasMotionFloatCurves: 0
  m_Events: []
