%YAML 1.1
%TAG !u! tag:unity3d.com,2011:
--- !u!1045 &1
EditorBuildSettings:
  m_ObjectHideFlags: 0
  serializedVersion: 2
  m_Scenes:
  - enabled: 1
    path: Assets/_Scenes/mainMenu.unity
    guid: 2289b3807c4f3484399c398144ec1ef3
  - enabled: 1
    path: Assets/_Scenes/OwOCredits.unity
    guid: cf4b33461ea3789438e4f6b8a6aeefe5
  - enabled: 1
    path: Assets/_Scenes/Level1.unity
    guid: 63b409a58a5c1ee41962c52b3479fa3e
  - enabled: 1
    path: Assets/_Scenes/Level2.unity
    guid: 732165aa849673b4294df6b29dee2ea4
  - enabled: 1
    path: Assets/_Scenes/Level3.unity
    guid: 2dbb0cf5669c4ac4cb3817856bf719e1
  m_configObjects: {}
